Neodym-YAG Laser/Versuchsdaten/2/spontane_emission_oszi_daten.csv

X,CH1,CH4,Start,Increment,
Sequence,Volt,Volt,-2.930000e-03,5.000000e-06
0,6.36e-02,5.96e+00,
1,6.36e-02,5.96e+00,
2,6.36e-02,5.96e+00,
3,6.36e-02,5.96e+00,
4,6.40e-02,5.96e+00,
5,6.40e-02,5.96e+00,
6,6.38e-02,5.96e+00,
7,6.38e-02,5.96e+00,
8,6.38e-02,5.96e+00,
9,6.38e-02,5.96e+00,
10,6.42e-02,5.96e+00,
11,6.42e-02,5.96e+00,
12,6.36e-02,5.94e+00,
13,6.36e-02,5.94e+00,
14,6.38e-02,5.94e+00,
15,6.38e-02,5.94e+00,
16,6.42e-02,5.96e+00,
17,6.42e-02,5.96e+00,
18,6.38e-02,5.96e+00,
19,6.38e-02,5.96e+00,
20,6.36e-02,5.94e+00,
21,6.36e-02,5.94e+00,
22,6.38e-02,5.94e+00,
23,6.38e-02,5.94e+00,
24,6.36e-02,5.96e+00,
25,6.36e-02,5.96e+00,
26,6.38e-02,5.96e+00,
27,6.38e-02,5.96e+00,
28,6.38e-02,5.94e+00,
29,6.38e-02,5.94e+00,
30,6.36e-02,5.96e+00,
31,6.36e-02,5.96e+00,
32,6.40e-02,5.94e+00,
33,6.40e-02,5.94e+00,
34,6.42e-02,5.94e+00,
35,6.42e-02,5.94e+00,
36,6.36e-02,5.96e+00,
37,6.36e-02,5.96e+00,
38,6.36e-02,5.96e+00,
39,6.36e-02,5.96e+00,
40,6.36e-02,5.96e+00,
41,6.36e-02,5.96e+00,
42,6.42e-02,5.96e+00,
43,6.42e-02,5.96e+00,
44,6.38e-02,5.94e+00,
45,6.38e-02,5.94e+00,
46,6.38e-02,5.96e+00,
47,6.38e-02,5.96e+00,
48,6.42e-02,5.94e+00,
49,6.42e-02,5.94e+00,
50,6.40e-02,5.94e+00,
51,6.40e-02,5.94e+00,
52,6.36e-02,5.96e+00,
53,6.36e-02,5.96e+00,
54,6.38e-02,5.96e+00,
55,6.38e-02,5.96e+00,
56,6.38e-02,5.96e+00,
57,6.38e-02,5.96e+00,
58,6.40e-02,5.96e+00,
59,6.40e-02,5.96e+00,
60,6.36e-02,5.96e+00,
61,6.36e-02,5.96e+00,
62,6.32e-02,5.94e+00,
63,6.32e-02,5.94e+00,
64,6.38e-02,5.94e+00,
65,6.38e-02,5.94e+00,
66,6.42e-02,5.94e+00,
67,6.42e-02,5.94e+00,
68,6.42e-02,5.96e+00,
69,6.42e-02,5.96e+00,
70,6.40e-02,5.96e+00,
71,6.40e-02,5.96e+00,
72,6.34e-02,5.94e+00,
73,6.34e-02,5.94e+00,
74,6.38e-02,5.96e+00,
75,6.38e-02,5.96e+00,
76,6.42e-02,5.96e+00,
77,6.42e-02,5.96e+00,
78,6.38e-02,5.96e+00,
79,6.38e-02,5.96e+00,
80,6.36e-02,5.96e+00,
81,6.36e-02,5.96e+00,
82,6.38e-02,5.96e+00,
83,6.38e-02,5.96e+00,
84,6.40e-02,5.96e+00,
85,6.40e-02,5.96e+00,
86,6.38e-02,5.96e+00,
87,6.38e-02,5.96e+00,
88,6.40e-02,5.94e+00,
89,6.40e-02,5.94e+00,
90,6.42e-02,5.96e+00,
91,6.42e-02,5.96e+00,
92,6.42e-02,5.96e+00,
93,6.42e-02,5.96e+00,
94,6.36e-02,5.96e+00,
95,6.36e-02,5.96e+00,
96,6.38e-02,5.94e+00,
97,6.38e-02,5.94e+00,
98,6.34e-02,5.94e+00,
99,6.34e-02,5.94e+00,
100,6.38e-02,5.94e+00,
101,6.38e-02,5.94e+00,
102,6.40e-02,5.96e+00,
103,6.40e-02,5.96e+00,
104,6.42e-02,5.96e+00,
105,6.42e-02,5.96e+00,
106,6.38e-02,5.96e+00,
107,6.38e-02,5.96e+00,
108,6.38e-02,5.96e+00,
109,6.38e-02,5.96e+00,
110,6.38e-02,5.96e+00,
111,6.38e-02,5.96e+00,
112,6.38e-02,5.96e+00,
113,6.38e-02,5.96e+00,
114,6.36e-02,5.96e+00,
115,6.36e-02,5.96e+00,
116,6.36e-02,5.96e+00,
117,6.36e-02,5.96e+00,
118,6.40e-02,5.96e+00,
119,6.40e-02,5.96e+00,
120,6.38e-02,5.96e+00,
121,6.38e-02,5.96e+00,
122,6.40e-02,5.96e+00,
123,6.40e-02,5.96e+00,
124,6.42e-02,5.96e+00,
125,6.42e-02,5.96e+00,
126,6.40e-02,5.94e+00,
127,6.40e-02,5.94e+00,
128,6.40e-02,5.94e+00,
129,6.40e-02,5.94e+00,
130,6.36e-02,5.96e+00,
131,6.36e-02,5.96e+00,
132,6.38e-02,5.94e+00,
133,6.38e-02,5.94e+00,
134,6.36e-02,5.94e+00,
135,6.36e-02,5.94e+00,
136,6.42e-02,5.96e+00,
137,6.42e-02,5.96e+00,
138,6.42e-02,5.94e+00,
139,6.42e-02,5.94e+00,
140,6.40e-02,5.96e+00,
141,6.40e-02,5.96e+00,
142,6.38e-02,5.96e+00,
143,6.38e-02,5.96e+00,
144,6.40e-02,5.94e+00,
145,6.40e-02,5.94e+00,
146,6.36e-02,5.94e+00,
147,6.36e-02,5.94e+00,
148,6.40e-02,5.94e+00,
149,6.40e-02,5.94e+00,
150,6.36e-02,5.94e+00,
151,6.36e-02,5.94e+00,
152,6.36e-02,5.94e+00,
153,6.36e-02,5.94e+00,
154,6.34e-02,5.96e+00,
155,6.34e-02,5.96e+00,
156,6.38e-02,5.96e+00,
157,6.38e-02,5.96e+00,
158,6.42e-02,5.94e+00,
159,6.42e-02,5.94e+00,
160,6.38e-02,5.96e+00,
161,6.38e-02,5.96e+00,
162,6.38e-02,5.94e+00,
163,6.38e-02,5.94e+00,
164,6.34e-02,5.94e+00,
165,6.34e-02,5.94e+00,
166,6.42e-02,5.94e+00,
167,6.42e-02,5.94e+00,
168,6.38e-02,5.96e+00,
169,6.38e-02,5.96e+00,
170,6.38e-02,5.96e+00,
171,6.38e-02,5.96e+00,
172,6.38e-02,5.94e+00,
173,6.38e-02,5.94e+00,
174,6.40e-02,5.94e+00,
175,6.40e-02,5.94e+00,
176,6.38e-02,5.96e+00,
177,6.38e-02,5.96e+00,
178,6.40e-02,5.94e+00,
179,6.40e-02,5.94e+00,
180,6.36e-02,5.96e+00,
181,6.36e-02,5.96e+00,
182,6.36e-02,5.96e+00,
183,6.36e-02,5.96e+00,
184,6.40e-02,5.96e+00,
185,6.40e-02,5.96e+00,
186,6.36e-02,5.96e+00,
187,6.36e-02,5.96e+00,
188,6.38e-02,5.96e+00,
189,6.38e-02,5.96e+00,
190,6.36e-02,5.94e+00,
191,6.36e-02,5.94e+00,
192,6.42e-02,5.94e+00,
193,6.42e-02,5.94e+00,
194,6.40e-02,5.96e+00,
195,6.40e-02,5.96e+00,
196,6.36e-02,5.94e+00,
197,6.36e-02,5.94e+00,
198,6.40e-02,5.96e+00,
199,6.40e-02,5.96e+00,
200,6.32e-02,5.96e+00,
201,6.32e-02,5.96e+00,
202,6.40e-02,5.96e+00,
203,6.40e-02,5.96e+00,
204,6.38e-02,5.96e+00,
205,6.38e-02,5.96e+00,
206,6.36e-02,5.96e+00,
207,6.36e-02,5.96e+00,
208,6.36e-02,5.96e+00,
209,6.36e-02,5.96e+00,
210,6.40e-02,5.94e+00,
211,6.40e-02,5.94e+00,
212,6.36e-02,5.96e+00,
213,6.36e-02,5.96e+00,
214,6.40e-02,5.94e+00,
215,6.40e-02,5.94e+00,
216,6.40e-02,5.94e+00,
217,6.40e-02,5.94e+00,
218,6.40e-02,5.94e+00,
219,6.40e-02,5.94e+00,
220,6.38e-02,5.96e+00,
221,6.38e-02,5.96e+00,
222,6.46e-02,5.94e+00,
223,6.46e-02,5.94e+00,
224,6.42e-02,5.96e+00,
225,6.42e-02,5.96e+00,
226,6.40e-02,5.96e+00,
227,6.40e-02,5.96e+00,
228,6.36e-02,5.96e+00,
229,6.36e-02,5.96e+00,
230,6.40e-02,5.94e+00,
231,6.40e-02,5.94e+00,
232,6.40e-02,5.96e+00,
233,6.40e-02,5.96e+00,
234,6.40e-02,5.96e+00,
235,6.40e-02,5.96e+00,
236,6.36e-02,5.96e+00,
237,6.36e-02,5.96e+00,
238,6.42e-02,5.96e+00,
239,6.42e-02,5.96e+00,
240,6.36e-02,5.96e+00,
241,6.36e-02,5.96e+00,
242,6.40e-02,5.94e+00,
243,6.40e-02,5.94e+00,
244,6.40e-02,5.96e+00,
245,6.40e-02,5.96e+00,
246,6.38e-02,5.94e+00,
247,6.38e-02,5.94e+00,
248,6.38e-02,5.96e+00,
249,6.38e-02,5.96e+00,
250,6.36e-02,5.96e+00,
251,6.36e-02,5.96e+00,
252,6.34e-02,5.94e+00,
253,6.34e-02,5.94e+00,
254,6.40e-02,5.96e+00,
255,6.40e-02,5.96e+00,
256,6.38e-02,5.94e+00,
257,6.38e-02,5.94e+00,
258,6.38e-02,5.96e+00,
259,6.38e-02,5.96e+00,
260,6.40e-02,5.94e+00,
261,6.40e-02,5.94e+00,
262,6.42e-02,5.96e+00,
263,6.42e-02,5.96e+00,
264,6.42e-02,5.96e+00,
265,6.42e-02,5.96e+00,
266,6.38e-02,5.94e+00,
267,6.38e-02,5.94e+00,
268,6.40e-02,5.96e+00,
269,6.40e-02,5.96e+00,
270,6.40e-02,5.96e+00,
271,6.40e-02,5.96e+00,
272,6.40e-02,5.94e+00,
273,6.40e-02,5.94e+00,
274,6.40e-02,5.96e+00,
275,6.40e-02,5.96e+00,
276,6.38e-02,5.96e+00,
277,6.38e-02,5.96e+00,
278,6.34e-02,5.96e+00,
279,6.34e-02,5.96e+00,
280,6.38e-02,5.96e+00,
281,6.38e-02,5.96e+00,
282,6.38e-02,5.96e+00,
283,6.38e-02,5.96e+00,
284,6.40e-02,5.96e+00,
285,6.40e-02,5.96e+00,
286,6.42e-02,5.96e+00,
287,6.42e-02,5.96e+00,
288,6.34e-02,5.96e+00,
289,6.34e-02,5.96e+00,
290,6.36e-02,5.96e+00,
291,6.36e-02,5.96e+00,
292,6.40e-02,5.96e+00,
293,6.40e-02,5.96e+00,
294,6.36e-02,5.96e+00,
295,6.36e-02,5.96e+00,
296,6.38e-02,5.96e+00,
297,6.38e-02,5.96e+00,
298,6.40e-02,5.94e+00,
299,6.40e-02,5.94e+00,
300,6.40e-02,5.94e+00,
301,6.40e-02,5.94e+00,
302,6.44e-02,5.94e+00,
303,6.44e-02,5.94e+00,
304,6.40e-02,5.94e+00,
305,6.40e-02,5.94e+00,
306,6.40e-02,5.96e+00,
307,6.40e-02,5.96e+00,
308,6.36e-02,5.94e+00,
309,6.36e-02,5.94e+00,
310,6.40e-02,5.96e+00,
311,6.40e-02,5.96e+00,
312,6.40e-02,5.96e+00,
313,6.40e-02,5.96e+00,
314,6.40e-02,5.96e+00,
315,6.40e-02,5.96e+00,
316,6.40e-02,5.96e+00,
317,6.40e-02,5.96e+00,
318,6.38e-02,5.94e+00,
319,6.38e-02,5.94e+00,
320,6.38e-02,5.96e+00,
321,6.38e-02,5.96e+00,
322,6.40e-02,5.94e+00,
323,6.40e-02,5.94e+00,
324,6.40e-02,5.96e+00,
325,6.40e-02,5.96e+00,
326,6.38e-02,5.94e+00,
327,6.38e-02,5.94e+00,
328,6.42e-02,5.96e+00,
329,6.42e-02,5.96e+00,
330,6.38e-02,5.96e+00,
331,6.38e-02,5.96e+00,
332,6.40e-02,5.96e+00,
333,6.40e-02,5.96e+00,
334,6.38e-02,5.96e+00,
335,6.38e-02,5.96e+00,
336,6.40e-02,5.94e+00,
337,6.40e-02,5.94e+00,
338,6.36e-02,5.96e+00,
339,6.36e-02,5.96e+00,
340,6.38e-02,5.96e+00,
341,6.38e-02,5.96e+00,
342,6.38e-02,5.96e+00,
343,6.38e-02,5.96e+00,
344,6.40e-02,5.96e+00,
345,6.40e-02,5.96e+00,
346,6.38e-02,5.96e+00,
347,6.38e-02,5.96e+00,
348,6.40e-02,5.96e+00,
349,6.40e-02,5.96e+00,
350,6.38e-02,5.96e+00,
351,6.38e-02,5.96e+00,
352,6.38e-02,5.96e+00,
353,6.38e-02,5.96e+00,
354,6.42e-02,5.96e+00,
355,6.42e-02,5.96e+00,
356,6.42e-02,5.96e+00,
357,6.42e-02,5.96e+00,
358,6.40e-02,5.96e+00,
359,6.40e-02,5.96e+00,
360,6.40e-02,5.96e+00,
361,6.40e-02,5.96e+00,
362,6.40e-02,5.94e+00,
363,6.40e-02,5.94e+00,
364,6.38e-02,5.96e+00,
365,6.38e-02,5.96e+00,
366,6.38e-02,5.96e+00,
367,6.38e-02,5.96e+00,
368,6.42e-02,5.96e+00,
369,6.42e-02,5.96e+00,
370,6.38e-02,5.94e+00,
371,6.38e-02,5.94e+00,
372,6.34e-02,5.96e+00,
373,6.34e-02,5.96e+00,
374,6.40e-02,5.96e+00,
375,6.40e-02,5.96e+00,
376,6.38e-02,5.96e+00,
377,6.38e-02,5.96e+00,
378,6.38e-02,5.96e+00,
379,6.38e-02,5.96e+00,
380,6.40e-02,5.96e+00,
381,6.40e-02,5.96e+00,
382,6.38e-02,5.94e+00,
383,6.38e-02,5.94e+00,
384,6.36e-02,5.96e+00,
385,6.36e-02,5.96e+00,
386,6.36e-02,5.94e+00,
387,6.36e-02,5.94e+00,
388,6.40e-02,5.96e+00,
389,6.40e-02,5.96e+00,
390,6.38e-02,5.96e+00,
391,6.38e-02,5.96e+00,
392,6.40e-02,5.96e+00,
393,6.40e-02,5.96e+00,
394,6.34e-02,5.96e+00,
395,6.34e-02,5.96e+00,
396,6.40e-02,5.96e+00,
397,6.40e-02,5.96e+00,
398,6.36e-02,5.96e+00,
399,6.36e-02,5.96e+00,
400,6.42e-02,5.98e+00,
401,6.42e-02,5.98e+00,
402,6.40e-02,5.96e+00,
403,6.40e-02,5.96e+00,
404,6.34e-02,5.96e+00,
405,6.34e-02,5.96e+00,
406,6.42e-02,5.96e+00,
407,6.42e-02,5.96e+00,
408,6.38e-02,5.96e+00,
409,6.38e-02,5.96e+00,
410,6.36e-02,5.96e+00,
411,6.36e-02,5.96e+00,
412,6.34e-02,5.94e+00,
413,6.34e-02,5.94e+00,
414,6.40e-02,5.96e+00,
415,6.40e-02,5.96e+00,
416,6.42e-02,5.94e+00,
417,6.42e-02,5.94e+00,
418,6.36e-02,5.96e+00,
419,6.36e-02,5.96e+00,
420,6.38e-02,5.96e+00,
421,6.38e-02,5.96e+00,
422,6.40e-02,5.94e+00,
423,6.40e-02,5.94e+00,
424,6.36e-02,5.98e+00,
425,6.36e-02,5.98e+00,
426,6.36e-02,5.96e+00,
427,6.36e-02,5.96e+00,
428,6.34e-02,5.94e+00,
429,6.34e-02,5.94e+00,
430,6.40e-02,5.94e+00,
431,6.40e-02,5.94e+00,
432,6.40e-02,5.96e+00,
433,6.40e-02,5.96e+00,
434,6.38e-02,5.96e+00,
435,6.38e-02,5.96e+00,
436,6.40e-02,5.96e+00,
437,6.40e-02,5.96e+00,
438,6.40e-02,5.96e+00,
439,6.40e-02,5.96e+00,
440,6.38e-02,5.96e+00,
441,6.38e-02,5.96e+00,
442,6.36e-02,5.96e+00,
443,6.36e-02,5.96e+00,
444,6.36e-02,5.94e+00,
445,6.36e-02,5.94e+00,
446,6.38e-02,5.96e+00,
447,6.38e-02,5.96e+00,
448,6.40e-02,5.96e+00,
449,6.40e-02,5.96e+00,
450,6.42e-02,5.94e+00,
451,6.42e-02,5.94e+00,
452,6.40e-02,5.94e+00,
453,6.40e-02,5.94e+00,
454,6.38e-02,5.94e+00,
455,6.38e-02,5.94e+00,
456,6.44e-02,5.94e+00,
457,6.44e-02,5.94e+00,
458,6.40e-02,5.96e+00,
459,6.40e-02,5.96e+00,
460,6.38e-02,5.96e+00,
461,6.38e-02,5.96e+00,
462,6.40e-02,5.96e+00,
463,6.40e-02,5.96e+00,
464,6.38e-02,5.96e+00,
465,6.38e-02,5.96e+00,
466,6.36e-02,5.94e+00,
467,6.36e-02,5.94e+00,
468,6.40e-02,5.96e+00,
469,6.40e-02,5.96e+00,
470,6.42e-02,5.96e+00,
471,6.42e-02,5.96e+00,
472,6.38e-02,5.96e+00,
473,6.38e-02,5.96e+00,
474,6.38e-02,5.96e+00,
475,6.38e-02,5.96e+00,
476,6.38e-02,5.96e+00,
477,6.38e-02,5.96e+00,
478,6.38e-02,5.96e+00,
479,6.38e-02,5.96e+00,
480,6.40e-02,5.96e+00,
481,6.40e-02,5.96e+00,
482,6.36e-02,5.96e+00,
483,6.36e-02,5.96e+00,
484,6.38e-02,5.94e+00,
485,6.38e-02,5.94e+00,
486,6.38e-02,5.96e+00,
487,6.38e-02,5.96e+00,
488,6.40e-02,5.94e+00,
489,6.40e-02,5.94e+00,
490,6.40e-02,5.96e+00,
491,6.40e-02,5.96e+00,
492,6.40e-02,5.94e+00,
493,6.40e-02,5.94e+00,
494,6.42e-02,5.94e+00,
495,6.42e-02,5.94e+00,
496,6.40e-02,5.96e+00,
497,6.40e-02,5.96e+00,
498,6.42e-02,5.96e+00,
499,6.42e-02,5.96e+00,
500,6.40e-02,5.96e+00,
501,6.40e-02,5.96e+00,
502,6.42e-02,5.96e+00,
503,6.42e-02,5.96e+00,
504,6.40e-02,5.96e+00,
505,6.40e-02,5.96e+00,
506,6.40e-02,5.96e+00,
507,6.40e-02,5.96e+00,
508,6.38e-02,5.96e+00,
509,6.38e-02,5.96e+00,
510,6.38e-02,5.94e+00,
511,6.38e-02,5.94e+00,
512,6.40e-02,5.96e+00,
513,6.40e-02,5.96e+00,
514,6.40e-02,5.94e+00,
515,6.40e-02,5.94e+00,
516,6.38e-02,5.96e+00,
517,6.38e-02,5.96e+00,
518,6.40e-02,5.94e+00,
519,6.40e-02,5.94e+00,
520,6.44e-02,5.96e+00,
521,6.44e-02,5.96e+00,
522,6.38e-02,5.94e+00,
523,6.38e-02,5.94e+00,
524,6.40e-02,5.96e+00,
525,6.40e-02,5.96e+00,
526,6.40e-02,5.94e+00,
527,6.40e-02,5.94e+00,
528,6.44e-02,5.94e+00,
529,6.44e-02,5.94e+00,
530,6.44e-02,5.96e+00,
531,6.44e-02,5.96e+00,
532,6.42e-02,5.96e+00,
533,6.42e-02,5.96e+00,
534,6.40e-02,5.96e+00,
535,6.40e-02,5.96e+00,
536,6.40e-02,5.96e+00,
537,6.40e-02,5.96e+00,
538,6.44e-02,5.96e+00,
539,6.44e-02,5.96e+00,
540,6.40e-02,5.98e+00,
541,6.40e-02,5.98e+00,
542,6.42e-02,5.96e+00,
543,6.42e-02,5.96e+00,
544,6.40e-02,5.94e+00,
545,6.40e-02,5.94e+00,
546,6.44e-02,5.96e+00,
547,6.44e-02,5.96e+00,
548,6.36e-02,5.96e+00,
549,6.36e-02,5.96e+00,
550,6.42e-02,5.96e+00,
551,6.42e-02,5.96e+00,
552,6.42e-02,5.94e+00,
553,6.42e-02,5.94e+00,
554,6.36e-02,5.94e+00,
555,6.36e-02,5.94e+00,
556,6.38e-02,5.96e+00,
557,6.38e-02,5.96e+00,
558,6.40e-02,5.96e+00,
559,6.40e-02,5.96e+00,
560,6.38e-02,5.94e+00,
561,6.38e-02,5.94e+00,
562,6.40e-02,5.96e+00,
563,6.40e-02,5.96e+00,
564,6.40e-02,5.96e+00,
565,6.40e-02,5.96e+00,
566,6.38e-02,5.96e+00,
567,6.38e-02,5.96e+00,
568,6.42e-02,5.96e+00,
569,6.42e-02,5.96e+00,
570,6.42e-02,5.96e+00,
571,6.42e-02,5.96e+00,
572,6.44e-02,5.96e+00,
573,6.44e-02,5.96e+00,
574,6.44e-02,5.96e+00,
575,6.44e-02,5.96e+00,
576,6.40e-02,5.94e+00,
577,6.40e-02,5.94e+00,
578,6.42e-02,5.96e+00,
579,6.42e-02,5.96e+00,
580,6.40e-02,5.96e+00,
581,6.40e-02,5.96e+00,
582,6.38e-02,5.96e+00,
583,6.38e-02,5.96e+00,
584,6.38e-02,5.30e+00,
585,6.38e-02,5.30e+00,
586,6.38e-02,5.30e+00,
587,6.38e-02,5.30e+00,
588,6.34e-02,5.30e+00,
589,6.34e-02,5.30e+00,
590,6.32e-02,5.30e+00,
591,6.32e-02,5.30e+00,
592,6.22e-02,5.30e+00,
593,6.22e-02,5.30e+00,
594,6.18e-02,5.30e+00,
595,6.18e-02,5.30e+00,
596,6.18e-02,5.30e+00,
597,6.18e-02,5.30e+00,
598,6.12e-02,5.30e+00,
599,6.12e-02,5.30e+00,
600,6.06e-02,5.30e+00,
601,6.06e-02,5.30e+00,
602,6.06e-02,5.30e+00,
603,6.06e-02,5.30e+00,
604,6.04e-02,5.30e+00,
605,6.04e-02,5.30e+00,
606,5.96e-02,5.32e+00,
607,5.96e-02,5.32e+00,
608,5.90e-02,5.30e+00,
609,5.90e-02,5.30e+00,
610,5.92e-02,5.30e+00,
611,5.92e-02,5.30e+00,
612,5.84e-02,5.28e+00,
613,5.84e-02,5.28e+00,
614,5.88e-02,5.28e+00,
615,5.88e-02,5.28e+00,
616,5.78e-02,5.30e+00,
617,5.78e-02,5.30e+00,
618,5.76e-02,5.28e+00,
619,5.76e-02,5.28e+00,
620,5.68e-02,5.30e+00,
621,5.68e-02,5.30e+00,
622,5.68e-02,5.30e+00,
623,5.68e-02,5.30e+00,
624,5.66e-02,5.30e+00,
625,5.66e-02,5.30e+00,
626,5.56e-02,5.30e+00,
627,5.56e-02,5.30e+00,
628,5.62e-02,5.28e+00,
629,5.62e-02,5.28e+00,
630,5.56e-02,5.28e+00,
631,5.56e-02,5.28e+00,
632,5.60e-02,5.28e+00,
633,5.60e-02,5.28e+00,
634,5.52e-02,5.30e+00,
635,5.52e-02,5.30e+00,
636,5.52e-02,5.28e+00,
637,5.52e-02,5.28e+00,
638,5.46e-02,5.30e+00,
639,5.46e-02,5.30e+00,
640,5.42e-02,5.30e+00,
641,5.42e-02,5.30e+00,
642,5.42e-02,5.30e+00,
643,5.42e-02,5.30e+00,
644,5.42e-02,5.30e+00,
645,5.42e-02,5.30e+00,
646,5.42e-02,5.30e+00,
647,5.42e-02,5.30e+00,
648,5.42e-02,5.30e+00,
649,5.42e-02,5.30e+00,
650,5.34e-02,5.30e+00,
651,5.34e-02,5.30e+00,
652,5.32e-02,5.30e+00,
653,5.32e-02,5.30e+00,
654,5.36e-02,5.28e+00,
655,5.36e-02,5.28e+00,
656,5.36e-02,5.30e+00,
657,5.36e-02,5.30e+00,
658,5.34e-02,5.28e+00,
659,5.34e-02,5.28e+00,
660,5.32e-02,5.32e+00,
661,5.32e-02,5.32e+00,
662,5.30e-02,5.28e+00,
663,5.30e-02,5.28e+00,
664,5.32e-02,5.30e+00,
665,5.32e-02,5.30e+00,
666,5.26e-02,5.30e+00,
667,5.26e-02,5.30e+00,
668,5.26e-02,5.32e+00,
669,5.26e-02,5.32e+00,
670,5.26e-02,5.32e+00,
671,5.26e-02,5.32e+00,
672,5.28e-02,5.30e+00,
673,5.28e-02,5.30e+00,
674,5.24e-02,5.30e+00,
675,5.24e-02,5.30e+00,
676,5.22e-02,5.30e+00,
677,5.22e-02,5.30e+00,
678,5.18e-02,5.32e+00,
679,5.18e-02,5.32e+00,
680,5.20e-02,5.30e+00,
681,5.20e-02,5.30e+00,
682,5.14e-02,5.32e+00,
683,5.14e-02,5.32e+00,
684,5.12e-02,5.30e+00,
685,5.12e-02,5.30e+00,
686,5.18e-02,5.28e+00,
687,5.18e-02,5.28e+00,
688,5.12e-02,5.28e+00,
689,5.12e-02,5.28e+00,
690,5.16e-02,5.32e+00,
691,5.16e-02,5.32e+00,
692,5.14e-02,5.28e+00,
693,5.14e-02,5.28e+00,
694,5.16e-02,5.30e+00,
695,5.16e-02,5.30e+00,
696,5.14e-02,5.28e+00,
697,5.14e-02,5.28e+00,
698,5.14e-02,5.30e+00,
699,5.14e-02,5.30e+00,
700,5.14e-02,5.28e+00,
701,5.14e-02,5.28e+00,
702,5.18e-02,5.30e+00,
703,5.18e-02,5.30e+00,
704,5.12e-02,5.28e+00,
705,5.12e-02,5.28e+00,
706,5.12e-02,5.28e+00,
707,5.12e-02,5.28e+00,
708,5.10e-02,5.30e+00,
709,5.10e-02,5.30e+00,
710,5.10e-02,5.28e+00,
711,5.10e-02,5.28e+00,
712,5.10e-02,5.30e+00,
713,5.10e-02,5.30e+00,
714,5.14e-02,5.30e+00,
715,5.14e-02,5.30e+00,
716,5.10e-02,5.30e+00,
717,5.10e-02,5.30e+00,
718,5.10e-02,5.32e+00,
719,5.10e-02,5.32e+00,
720,5.08e-02,5.32e+00,
721,5.08e-02,5.32e+00,
722,5.08e-02,5.28e+00,
723,5.08e-02,5.28e+00,
724,5.04e-02,5.28e+00,
725,5.04e-02,5.28e+00,
726,5.06e-02,5.30e+00,
727,5.06e-02,5.30e+00,
728,5.04e-02,5.30e+00,
729,5.04e-02,5.30e+00,
730,5.06e-02,5.30e+00,
731,5.06e-02,5.30e+00,
732,5.04e-02,5.28e+00,
733,5.04e-02,5.28e+00,
734,5.08e-02,5.30e+00,
735,5.08e-02,5.30e+00,
736,5.06e-02,5.30e+00,
737,5.06e-02,5.30e+00,
738,5.04e-02,5.30e+00,
739,5.04e-02,5.30e+00,
740,4.98e-02,5.32e+00,
741,4.98e-02,5.32e+00,
742,5.02e-02,5.30e+00,
743,5.02e-02,5.30e+00,
744,5.00e-02,5.30e+00,
745,5.00e-02,5.30e+00,
746,5.04e-02,5.32e+00,
747,5.04e-02,5.32e+00,
748,5.06e-02,5.30e+00,
749,5.06e-02,5.30e+00,
750,5.02e-02,5.30e+00,
751,5.02e-02,5.30e+00,
752,5.02e-02,5.30e+00,
753,5.02e-02,5.30e+00,
754,5.04e-02,5.30e+00,
755,5.04e-02,5.30e+00,
756,5.06e-02,5.30e+00,
757,5.06e-02,5.30e+00,
758,5.04e-02,5.28e+00,
759,5.04e-02,5.28e+00,
760,5.04e-02,5.28e+00,
761,5.04e-02,5.28e+00,
762,5.08e-02,5.30e+00,
763,5.08e-02,5.30e+00,
764,5.02e-02,5.30e+00,
765,5.02e-02,5.30e+00,
766,5.06e-02,5.30e+00,
767,5.06e-02,5.30e+00,
768,5.04e-02,5.30e+00,
769,5.04e-02,5.30e+00,
770,5.04e-02,5.30e+00,
771,5.04e-02,5.30e+00,
772,5.00e-02,5.30e+00,
773,5.00e-02,5.30e+00,
774,5.00e-02,5.30e+00,
775,5.00e-02,5.30e+00,
776,5.02e-02,5.28e+00,
777,5.02e-02,5.28e+00,
778,4.98e-02,5.30e+00,
779,4.98e-02,5.30e+00,
780,5.00e-02,5.30e+00,
781,5.00e-02,5.30e+00,
782,4.98e-02,5.28e+00,
783,4.98e-02,5.28e+00,
784,4.96e-02,5.30e+00,
785,4.96e-02,5.30e+00,
786,4.96e-02,5.30e+00,
787,4.96e-02,5.30e+00,
788,4.98e-02,5.30e+00,
789,4.98e-02,5.30e+00,
790,5.00e-02,5.32e+00,
791,5.00e-02,5.32e+00,
792,4.96e-02,5.30e+00,
793,4.96e-02,5.30e+00,
794,4.96e-02,5.30e+00,
795,4.96e-02,5.30e+00,
796,5.02e-02,5.28e+00,
797,5.02e-02,5.28e+00,
798,4.98e-02,5.30e+00,
799,4.98e-02,5.30e+00,
800,4.96e-02,5.30e+00,
801,4.96e-02,5.30e+00,
802,5.00e-02,5.30e+00,
803,5.00e-02,5.30e+00,
804,4.96e-02,5.30e+00,
805,4.96e-02,5.30e+00,
806,4.94e-02,5.30e+00,
807,4.94e-02,5.30e+00,
808,4.98e-02,5.30e+00,
809,4.98e-02,5.30e+00,
810,4.96e-02,5.30e+00,
811,4.96e-02,5.30e+00,
812,4.96e-02,5.30e+00,
813,4.96e-02,5.30e+00,
814,5.02e-02,5.30e+00,
815,5.02e-02,5.30e+00,
816,5.00e-02,5.30e+00,
817,5.00e-02,5.30e+00,
818,5.00e-02,5.30e+00,
819,5.00e-02,5.30e+00,
820,4.96e-02,5.28e+00,
821,4.96e-02,5.28e+00,
822,4.98e-02,5.28e+00,
823,4.98e-02,5.28e+00,
824,4.96e-02,5.28e+00,
825,4.96e-02,5.28e+00,
826,4.98e-02,5.28e+00,
827,4.98e-02,5.28e+00,
828,5.00e-02,5.30e+00,
829,5.00e-02,5.30e+00,
830,4.98e-02,5.28e+00,
831,4.98e-02,5.28e+00,
832,5.00e-02,5.30e+00,
833,5.00e-02,5.30e+00,
834,5.00e-02,5.30e+00,
835,5.00e-02,5.30e+00,
836,5.00e-02,5.30e+00,
837,5.00e-02,5.30e+00,
838,5.00e-02,5.30e+00,
839,5.00e-02,5.30e+00,
840,5.00e-02,5.30e+00,
841,5.00e-02,5.30e+00,
842,5.00e-02,5.28e+00,
843,5.00e-02,5.28e+00,
844,4.98e-02,5.30e+00,
845,4.98e-02,5.30e+00,
846,5.02e-02,5.32e+00,
847,5.02e-02,5.32e+00,
848,4.98e-02,5.30e+00,
849,4.98e-02,5.30e+00,
850,5.00e-02,5.30e+00,
851,5.00e-02,5.30e+00,
852,4.96e-02,5.30e+00,
853,4.96e-02,5.30e+00,
854,5.00e-02,5.30e+00,
855,5.00e-02,5.30e+00,
856,4.98e-02,5.32e+00,
857,4.98e-02,5.32e+00,
858,5.02e-02,5.30e+00,
859,5.02e-02,5.30e+00,
860,5.02e-02,5.30e+00,
861,5.02e-02,5.30e+00,
862,5.04e-02,5.30e+00,
863,5.04e-02,5.30e+00,
864,5.02e-02,5.30e+00,
865,5.02e-02,5.30e+00,
866,5.02e-02,5.30e+00,
867,5.02e-02,5.30e+00,
868,5.00e-02,5.28e+00,
869,5.00e-02,5.28e+00,
870,5.00e-02,5.28e+00,
