Neodym-YAG Laser/Versuchsdaten/6/spikes_450nm.csv

X,CH1,CH4,Start,Increment,
Sequence,Volt,Volt,-6.000000e-03,5.000000e-06
0,1.88e+00,4.24e+00,
1,1.88e+00,4.24e+00,
2,1.88e+00,4.22e+00,
3,1.88e+00,4.22e+00,
4,1.92e+00,4.22e+00,
5,1.92e+00,4.22e+00,
6,1.92e+00,4.24e+00,
7,1.92e+00,4.24e+00,
8,1.92e+00,4.22e+00,
9,1.92e+00,4.22e+00,
10,1.88e+00,4.22e+00,
11,1.88e+00,4.22e+00,
12,1.92e+00,4.22e+00,
13,1.92e+00,4.22e+00,
14,1.88e+00,4.22e+00,
15,1.88e+00,4.22e+00,
16,1.92e+00,4.22e+00,
17,1.92e+00,4.22e+00,
18,1.88e+00,4.22e+00,
19,1.88e+00,4.22e+00,
20,1.92e+00,4.22e+00,
21,1.92e+00,4.22e+00,
22,1.92e+00,4.22e+00,
23,1.92e+00,4.22e+00,
24,1.88e+00,4.22e+00,
25,1.88e+00,4.22e+00,
26,1.88e+00,4.22e+00,
27,1.88e+00,4.22e+00,
28,1.92e+00,4.22e+00,
29,1.92e+00,4.22e+00,
30,1.92e+00,4.24e+00,
31,1.92e+00,4.24e+00,
32,1.92e+00,4.22e+00,
33,1.92e+00,4.22e+00,
34,1.92e+00,4.22e+00,
35,1.92e+00,4.22e+00,
36,1.88e+00,4.22e+00,
37,1.88e+00,4.22e+00,
38,1.92e+00,4.22e+00,
39,1.92e+00,4.22e+00,
40,1.88e+00,4.22e+00,
41,1.88e+00,4.22e+00,
42,1.92e+00,4.22e+00,
43,1.92e+00,4.22e+00,
44,1.88e+00,4.22e+00,
45,1.88e+00,4.22e+00,
46,1.92e+00,4.24e+00,
47,1.92e+00,4.24e+00,
48,1.88e+00,4.22e+00,
49,1.88e+00,4.22e+00,
50,1.88e+00,4.22e+00,
51,1.88e+00,4.22e+00,
52,1.88e+00,4.22e+00,
53,1.88e+00,4.22e+00,
54,1.92e+00,4.22e+00,
55,1.92e+00,4.22e+00,
56,1.92e+00,4.22e+00,
57,1.92e+00,4.22e+00,
58,1.88e+00,4.22e+00,
59,1.88e+00,4.22e+00,
60,1.88e+00,4.22e+00,
61,1.88e+00,4.22e+00,
62,1.88e+00,4.22e+00,
63,1.88e+00,4.22e+00,
64,1.88e+00,4.22e+00,
65,1.88e+00,4.22e+00,
66,1.92e+00,4.22e+00,
67,1.92e+00,4.22e+00,
68,1.92e+00,4.22e+00,
69,1.92e+00,4.22e+00,
70,1.88e+00,4.22e+00,
71,1.88e+00,4.22e+00,
72,1.88e+00,4.22e+00,
73,1.88e+00,4.22e+00,
74,1.92e+00,4.22e+00,
75,1.92e+00,4.22e+00,
76,1.88e+00,4.22e+00,
77,1.88e+00,4.22e+00,
78,1.84e+00,4.22e+00,
79,1.84e+00,4.22e+00,
80,1.88e+00,4.24e+00,
81,1.88e+00,4.24e+00,
82,1.92e+00,4.24e+00,
83,1.92e+00,4.24e+00,
84,1.88e+00,4.22e+00,
85,1.88e+00,4.22e+00,
86,1.88e+00,4.22e+00,
87,1.88e+00,4.22e+00,
88,1.88e+00,4.22e+00,
89,1.88e+00,4.22e+00,
90,1.88e+00,4.22e+00,
91,1.88e+00,4.22e+00,
92,1.88e+00,4.22e+00,
93,1.88e+00,4.22e+00,
94,1.88e+00,4.22e+00,
95,1.88e+00,4.22e+00,
96,1.88e+00,4.22e+00,
97,1.88e+00,4.22e+00,
98,1.88e+00,4.24e+00,
99,1.88e+00,4.24e+00,
100,1.88e+00,4.24e+00,
101,1.88e+00,4.24e+00,
102,1.88e+00,4.22e+00,
103,1.88e+00,4.22e+00,
104,1.88e+00,4.22e+00,
105,1.88e+00,4.22e+00,
106,1.92e+00,4.22e+00,
107,1.92e+00,4.22e+00,
108,1.88e+00,4.22e+00,
109,1.88e+00,4.22e+00,
110,1.88e+00,4.24e+00,
111,1.88e+00,4.24e+00,
112,1.88e+00,4.24e+00,
113,1.88e+00,4.24e+00,
114,1.88e+00,4.22e+00,
115,1.88e+00,4.22e+00,
116,1.88e+00,4.22e+00,
117,1.88e+00,4.22e+00,
118,1.88e+00,4.22e+00,
119,1.88e+00,4.22e+00,
120,1.88e+00,4.24e+00,
121,1.88e+00,4.24e+00,
122,1.88e+00,4.22e+00,
123,1.88e+00,4.22e+00,
124,1.88e+00,4.22e+00,
125,1.88e+00,4.22e+00,
126,1.88e+00,4.22e+00,
127,1.88e+00,4.22e+00,
128,1.88e+00,4.24e+00,
129,1.88e+00,4.24e+00,
130,1.88e+00,4.22e+00,
131,1.88e+00,4.22e+00,
132,1.88e+00,4.22e+00,
133,1.88e+00,4.22e+00,
134,1.88e+00,4.22e+00,
135,1.88e+00,4.22e+00,
136,1.88e+00,4.22e+00,
137,1.88e+00,4.22e+00,
138,1.88e+00,4.22e+00,
139,1.88e+00,4.22e+00,
140,1.88e+00,4.22e+00,
141,1.88e+00,4.22e+00,
142,1.88e+00,4.22e+00,
143,1.88e+00,4.22e+00,
144,1.88e+00,4.22e+00,
145,1.88e+00,4.22e+00,
146,1.88e+00,4.22e+00,
147,1.88e+00,4.22e+00,
148,1.88e+00,4.22e+00,
149,1.88e+00,4.22e+00,
150,1.88e+00,4.22e+00,
151,1.88e+00,4.22e+00,
152,1.88e+00,4.22e+00,
153,1.88e+00,4.22e+00,
154,1.88e+00,4.22e+00,
155,1.88e+00,4.22e+00,
156,1.88e+00,4.24e+00,
157,1.88e+00,4.24e+00,
158,1.92e+00,4.22e+00,
159,1.92e+00,4.22e+00,
160,1.88e+00,4.22e+00,
161,1.88e+00,4.22e+00,
162,1.88e+00,4.24e+00,
163,1.88e+00,4.24e+00,
164,1.88e+00,4.24e+00,
165,1.88e+00,4.24e+00,
166,1.88e+00,4.24e+00,
167,1.88e+00,4.24e+00,
168,1.88e+00,4.24e+00,
169,1.88e+00,4.24e+00,
170,1.88e+00,4.22e+00,
171,1.88e+00,4.22e+00,
172,1.88e+00,4.22e+00,
173,1.88e+00,4.22e+00,
174,1.88e+00,4.22e+00,
175,1.88e+00,4.22e+00,
176,1.88e+00,4.22e+00,
177,1.88e+00,4.22e+00,
178,1.88e+00,4.22e+00,
179,1.88e+00,4.22e+00,
180,1.88e+00,4.22e+00,
181,1.88e+00,4.22e+00,
182,1.88e+00,4.22e+00,
183,1.88e+00,4.22e+00,
184,1.88e+00,4.22e+00,
185,1.88e+00,4.22e+00,
186,1.88e+00,4.24e+00,
187,1.88e+00,4.24e+00,
188,1.88e+00,4.24e+00,
189,1.88e+00,4.24e+00,
190,1.88e+00,4.22e+00,
191,1.88e+00,4.22e+00,
192,1.88e+00,4.22e+00,
193,1.88e+00,4.22e+00,
194,1.88e+00,4.22e+00,
195,1.88e+00,4.22e+00,
196,1.88e+00,4.22e+00,
197,1.88e+00,4.22e+00,
198,1.88e+00,4.22e+00,
199,1.88e+00,4.22e+00,
200,2.04e+00,4.88e+00,
201,2.04e+00,4.88e+00,
202,3.56e+00,4.88e+00,
203,3.56e+00,4.88e+00,
204,4.20e+00,4.88e+00,
205,4.20e+00,4.88e+00,
206,3.76e+00,4.88e+00,
207,3.76e+00,4.88e+00,
208,4.48e+00,4.88e+00,
209,4.48e+00,4.88e+00,
210,4.92e+00,4.88e+00,
211,4.92e+00,4.88e+00,
212,4.12e+00,4.88e+00,
213,4.12e+00,4.88e+00,
214,4.64e+00,4.88e+00,
215,4.64e+00,4.88e+00,
216,4.80e+00,4.88e+00,
217,4.80e+00,4.88e+00,
218,5.24e+00,4.88e+00,
219,5.24e+00,4.88e+00,
220,4.36e+00,4.88e+00,
221,4.36e+00,4.88e+00,
222,4.88e+00,4.88e+00,
223,4.88e+00,4.88e+00,
224,4.36e+00,4.88e+00,
225,4.36e+00,4.88e+00,
226,4.88e+00,4.88e+00,
227,4.88e+00,4.88e+00,
228,4.64e+00,4.88e+00,
229,4.64e+00,4.88e+00,
230,4.36e+00,4.88e+00,
231,4.36e+00,4.88e+00,
232,5.44e+00,4.88e+00,
233,5.44e+00,4.88e+00,
234,4.84e+00,4.88e+00,
235,4.84e+00,4.88e+00,
236,4.60e+00,4.88e+00,
237,4.60e+00,4.88e+00,
238,4.72e+00,4.88e+00,
239,4.72e+00,4.88e+00,
240,4.72e+00,4.88e+00,
241,4.72e+00,4.88e+00,
242,5.08e+00,4.88e+00,
243,5.08e+00,4.88e+00,
244,4.88e+00,4.86e+00,
245,4.88e+00,4.86e+00,
246,4.72e+00,4.88e+00,
247,4.72e+00,4.88e+00,
248,4.88e+00,4.88e+00,
249,4.88e+00,4.88e+00,
250,4.80e+00,4.88e+00,
251,4.80e+00,4.88e+00,
252,5.04e+00,4.88e+00,
253,5.04e+00,4.88e+00,
254,4.84e+00,4.86e+00,
255,4.84e+00,4.86e+00,
256,4.76e+00,4.88e+00,
257,4.76e+00,4.88e+00,
258,4.88e+00,4.88e+00,
259,4.88e+00,4.88e+00,
260,4.84e+00,4.88e+00,
261,4.84e+00,4.88e+00,
262,4.68e+00,4.88e+00,
263,4.68e+00,4.88e+00,
264,4.92e+00,4.88e+00,
265,4.92e+00,4.88e+00,
266,4.68e+00,4.88e+00,
267,4.68e+00,4.88e+00,
268,4.64e+00,4.88e+00,
269,4.64e+00,4.88e+00,
270,4.88e+00,4.88e+00,
271,4.88e+00,4.88e+00,
272,4.64e+00,4.88e+00,
273,4.64e+00,4.88e+00,
274,4.64e+00,4.88e+00,
275,4.64e+00,4.88e+00,
276,4.88e+00,4.88e+00,
277,4.88e+00,4.88e+00,
278,4.72e+00,4.88e+00,
279,4.72e+00,4.88e+00,
280,4.76e+00,4.88e+00,
281,4.76e+00,4.88e+00,
282,4.96e+00,4.86e+00,
283,4.96e+00,4.86e+00,
284,4.72e+00,4.88e+00,
285,4.72e+00,4.88e+00,
286,4.72e+00,4.88e+00,
287,4.72e+00,4.88e+00,
288,4.96e+00,4.88e+00,
289,4.96e+00,4.88e+00,
290,4.80e+00,4.88e+00,
291,4.80e+00,4.88e+00,
292,4.80e+00,4.88e+00,
293,4.80e+00,4.88e+00,
294,5.00e+00,4.88e+00,
295,5.00e+00,4.88e+00,
296,4.88e+00,4.88e+00,
297,4.88e+00,4.88e+00,
298,4.80e+00,4.88e+00,
299,4.80e+00,4.88e+00,
300,5.00e+00,4.88e+00,
301,5.00e+00,4.88e+00,
302,4.96e+00,4.88e+00,
303,4.96e+00,4.88e+00,
304,4.84e+00,4.88e+00,
305,4.84e+00,4.88e+00,
306,5.00e+00,4.88e+00,
307,5.00e+00,4.88e+00,
308,4.92e+00,4.88e+00,
309,4.92e+00,4.88e+00,
310,4.80e+00,4.88e+00,
311,4.80e+00,4.88e+00,
312,4.92e+00,4.88e+00,
313,4.92e+00,4.88e+00,
314,4.92e+00,4.88e+00,
315,4.92e+00,4.88e+00,
316,4.80e+00,4.88e+00,
317,4.80e+00,4.88e+00,
318,4.88e+00,4.88e+00,
319,4.88e+00,4.88e+00,
320,4.92e+00,4.86e+00,
321,4.92e+00,4.86e+00,
322,4.80e+00,4.88e+00,
323,4.80e+00,4.88e+00,
324,4.92e+00,4.88e+00,
325,4.92e+00,4.88e+00,
326,4.92e+00,4.88e+00,
327,4.92e+00,4.88e+00,
328,4.76e+00,4.88e+00,
329,4.76e+00,4.88e+00,
330,4.76e+00,4.88e+00,
331,4.76e+00,4.88e+00,
332,4.80e+00,4.88e+00,
333,4.80e+00,4.88e+00,
334,4.72e+00,4.88e+00,
335,4.72e+00,4.88e+00,
336,4.76e+00,4.88e+00,
337,4.76e+00,4.88e+00,
338,4.80e+00,4.88e+00,
339,4.80e+00,4.88e+00,
340,4.72e+00,4.88e+00,
341,4.72e+00,4.88e+00,
342,4.76e+00,4.88e+00,
343,4.76e+00,4.88e+00,
344,4.80e+00,4.88e+00,
345,4.80e+00,4.88e+00,
346,4.80e+00,4.88e+00,
347,4.80e+00,4.88e+00,
348,4.80e+00,4.88e+00,
349,4.80e+00,4.88e+00,
350,4.84e+00,4.88e+00,
351,4.84e+00,4.88e+00,
352,4.84e+00,4.88e+00,
353,4.84e+00,4.88e+00,
354,4.80e+00,4.88e+00,
355,4.80e+00,4.88e+00,
356,4.84e+00,4.88e+00,
357,4.84e+00,4.88e+00,
358,4.84e+00,4.88e+00,
359,4.84e+00,4.88e+00,
360,4.80e+00,4.88e+00,
361,4.80e+00,4.88e+00,
362,4.84e+00,4.88e+00,
363,4.84e+00,4.88e+00,
364,4.80e+00,4.88e+00,
365,4.80e+00,4.88e+00,
366,4.76e+00,4.88e+00,
367,4.76e+00,4.88e+00,
368,4.80e+00,4.88e+00,
369,4.80e+00,4.88e+00,
370,4.72e+00,4.88e+00,
371,4.72e+00,4.88e+00,
372,4.68e+00,4.88e+00,
373,4.68e+00,4.88e+00,
374,4.72e+00,4.88e+00,
375,4.72e+00,4.88e+00,
376,4.76e+00,4.88e+00,
377,4.76e+00,4.88e+00,
378,4.72e+00,4.88e+00,
379,4.72e+00,4.88e+00,
380,4.72e+00,4.88e+00,
381,4.72e+00,4.88e+00,
382,4.80e+00,4.88e+00,
383,4.80e+00,4.88e+00,
384,4.76e+00,4.88e+00,
385,4.76e+00,4.88e+00,
386,4.80e+00,4.88e+00,
387,4.80e+00,4.88e+00,
388,4.80e+00,4.88e+00,
389,4.80e+00,4.88e+00,
390,4.80e+00,4.88e+00,
391,4.80e+00,4.88e+00,
392,4.84e+00,4.88e+00,
393,4.84e+00,4.88e+00,
394,4.88e+00,4.88e+00,
395,4.88e+00,4.88e+00,
396,4.88e+00,4.88e+00,
397,4.88e+00,4.88e+00,
398,4.88e+00,4.88e+00,
399,4.88e+00,4.88e+00,
400,4.88e+00,4.88e+00,
401,4.88e+00,4.88e+00,
402,4.92e+00,4.88e+00,
403,4.92e+00,4.88e+00,
404,4.84e+00,4.88e+00,
405,4.84e+00,4.88e+00,
406,4.84e+00,4.86e+00,
407,4.84e+00,4.86e+00,
408,4.80e+00,4.88e+00,
409,4.80e+00,4.88e+00,
410,4.72e+00,4.88e+00,
411,4.72e+00,4.88e+00,
412,4.72e+00,4.88e+00,
413,4.72e+00,4.88e+00,
414,4.72e+00,4.88e+00,
415,4.72e+00,4.88e+00,
416,4.64e+00,4.88e+00,
417,4.64e+00,4.88e+00,
418,4.68e+00,4.86e+00,
419,4.68e+00,4.86e+00,
420,4.68e+00,4.88e+00,
421,4.68e+00,4.88e+00,
422,4.64e+00,4.88e+00,
423,4.64e+00,4.88e+00,
424,4.68e+00,4.88e+00,
425,4.68e+00,4.88e+00,
426,4.68e+00,4.88e+00,
427,4.68e+00,4.88e+00,
428,4.64e+00,4.86e+00,
429,4.64e+00,4.86e+00,
430,4.68e+00,4.88e+00,
431,4.68e+00,4.88e+00,
432,4.68e+00,4.88e+00,
433,4.68e+00,4.88e+00,
434,4.64e+00,4.86e+00,
435,4.64e+00,4.86e+00,
436,4.68e+00,4.88e+00,
437,4.68e+00,4.88e+00,
438,4.64e+00,4.88e+00,
439,4.64e+00,4.88e+00,
440,4.64e+00,4.88e+00,
441,4.64e+00,4.88e+00,
442,4.64e+00,4.88e+00,
443,4.64e+00,4.88e+00,
444,4.64e+00,4.88e+00,
445,4.64e+00,4.88e+00,
446,4.64e+00,4.88e+00,
447,4.64e+00,4.88e+00,
448,4.60e+00,4.88e+00,
449,4.60e+00,4.88e+00,
450,4.60e+00,4.88e+00,
451,4.60e+00,4.88e+00,
452,4.60e+00,4.88e+00,
453,4.60e+00,4.88e+00,
454,4.60e+00,4.86e+00,
455,4.60e+00,4.86e+00,
456,4.56e+00,4.88e+00,
457,4.56e+00,4.88e+00,
458,4.56e+00,4.86e+00,
459,4.56e+00,4.86e+00,
460,4.56e+00,4.88e+00,
461,4.56e+00,4.88e+00,
462,4.56e+00,4.88e+00,
463,4.56e+00,4.88e+00,
464,4.56e+00,4.88e+00,
465,4.56e+00,4.88e+00,
466,4.56e+00,4.88e+00,
467,4.56e+00,4.88e+00,
468,4.56e+00,4.88e+00,
469,4.56e+00,4.88e+00,
470,4.56e+00,4.88e+00,
471,4.56e+00,4.88e+00,
472,4.56e+00,4.88e+00,
473,4.56e+00,4.88e+00,
474,4.52e+00,4.88e+00,
475,4.52e+00,4.88e+00,
476,4.52e+00,4.88e+00,
477,4.52e+00,4.88e+00,
478,4.48e+00,4.88e+00,
479,4.48e+00,4.88e+00,
480,4.48e+00,4.88e+00,
481,4.48e+00,4.88e+00,
482,4.44e+00,4.88e+00,
483,4.44e+00,4.88e+00,
484,4.44e+00,4.88e+00,
485,4.44e+00,4.88e+00,
486,4.44e+00,4.88e+00,
487,4.44e+00,4.88e+00,
488,4.44e+00,4.88e+00,
489,4.44e+00,4.88e+00,
490,4.48e+00,4.88e+00,
491,4.48e+00,4.88e+00,
492,4.44e+00,4.88e+00,
493,4.44e+00,4.88e+00,
494,4.44e+00,4.88e+00,
495,4.44e+00,4.88e+00,
496,4.48e+00,4.88e+00,
497,4.48e+00,4.88e+00,
498,4.52e+00,4.88e+00,
499,4.52e+00,4.88e+00,
500,4.52e+00,4.88e+00,
501,4.52e+00,4.88e+00,
502,4.56e+00,4.88e+00,
503,4.56e+00,4.88e+00,
504,4.60e+00,4.88e+00,
505,4.60e+00,4.88e+00,
506,4.60e+00,4.88e+00,
507,4.60e+00,4.88e+00,
508,4.60e+00,4.88e+00,
509,4.60e+00,4.88e+00,
510,4.60e+00,4.88e+00,
511,4.60e+00,4.88e+00,
512,4.64e+00,4.88e+00,
513,4.64e+00,4.88e+00,
514,4.68e+00,4.88e+00,
515,4.68e+00,4.88e+00,
516,4.64e+00,4.88e+00,
517,4.64e+00,4.88e+00,
518,4.68e+00,4.88e+00,
519,4.68e+00,4.88e+00,
520,4.68e+00,4.88e+00,
521,4.68e+00,4.88e+00,
522,4.68e+00,4.88e+00,
523,4.68e+00,4.88e+00,
524,4.68e+00,4.88e+00,
525,4.68e+00,4.88e+00,
526,4.68e+00,4.88e+00,
527,4.68e+00,4.88e+00,
528,4.72e+00,4.88e+00,
529,4.72e+00,4.88e+00,
530,4.72e+00,4.88e+00,
531,4.72e+00,4.88e+00,
532,4.72e+00,4.88e+00,
533,4.72e+00,4.88e+00,
534,4.72e+00,4.88e+00,
535,4.72e+00,4.88e+00,
536,4.68e+00,4.88e+00,
537,4.68e+00,4.88e+00,
538,4.72e+00,4.88e+00,
539,4.72e+00,4.88e+00,
540,4.68e+00,4.88e+00,
541,4.68e+00,4.88e+00,
542,4.72e+00,4.88e+00,
543,4.72e+00,4.88e+00,
544,4.72e+00,4.88e+00,
545,4.72e+00,4.88e+00,
546,4.72e+00,4.88e+00,
547,4.72e+00,4.88e+00,
548,4.68e+00,4.88e+00,
549,4.68e+00,4.88e+00,
550,4.68e+00,4.88e+00,
551,4.68e+00,4.88e+00,
552,4.68e+00,4.88e+00,
553,4.68e+00,4.88e+00,
554,4.68e+00,4.88e+00,
555,4.68e+00,4.88e+00,
556,4.68e+00,4.88e+00,
557,4.68e+00,4.88e+00,
558,4.68e+00,4.88e+00,
559,4.68e+00,4.88e+00,
560,4.68e+00,4.88e+00,
561,4.68e+00,4.88e+00,
562,4.68e+00,4.88e+00,
563,4.68e+00,4.88e+00,
564,4.68e+00,4.88e+00,
565,4.68e+00,4.88e+00,
566,4.76e+00,4.88e+00,
567,4.76e+00,4.88e+00,
568,4.76e+00,4.88e+00,
569,4.76e+00,4.88e+00,
570,4.76e+00,4.88e+00,
571,4.76e+00,4.88e+00,
572,4.76e+00,4.88e+00,
573,4.76e+00,4.88e+00,
574,4.76e+00,4.90e+00,
575,4.76e+00,4.90e+00,
576,4.80e+00,4.88e+00,
577,4.80e+00,4.88e+00,
578,4.76e+00,4.88e+00,
579,4.76e+00,4.88e+00,
580,4.76e+00,4.88e+00,
581,4.76e+00,4.88e+00,
582,4.80e+00,4.88e+00,
583,4.80e+00,4.88e+00,
584,4.76e+00,4.88e+00,
585,4.76e+00,4.88e+00,
586,4.84e+00,4.88e+00,
587,4.84e+00,4.88e+00,
588,4.88e+00,4.88e+00,
589,4.88e+00,4.88e+00,
590,4.88e+00,4.88e+00,
591,4.88e+00,4.88e+00,
592,4.84e+00,4.88e+00,
593,4.84e+00,4.88e+00,
594,4.84e+00,4.88e+00,
595,4.84e+00,4.88e+00,
596,4.84e+00,4.88e+00,
597,4.84e+00,4.88e+00,
598,4.80e+00,4.90e+00,
599,4.80e+00,4.90e+00,
600,4.88e+00,4.88e+00,
601,4.88e+00,4.88e+00,
602,4.88e+00,4.88e+00,
603,4.88e+00,4.88e+00,
604,4.84e+00,4.88e+00,
605,4.84e+00,4.88e+00,
606,4.88e+00,4.88e+00,
607,4.88e+00,4.88e+00,
608,4.92e+00,4.88e+00,
609,4.92e+00,4.88e+00,
610,4.88e+00,4.88e+00,
611,4.88e+00,4.88e+00,
612,4.92e+00,4.88e+00,
613,4.92e+00,4.88e+00,
614,4.96e+00,4.88e+00,
615,4.96e+00,4.88e+00,
616,4.92e+00,4.88e+00,
617,4.92e+00,4.88e+00,
618,4.96e+00,4.88e+00,
619,4.96e+00,4.88e+00,
620,4.92e+00,4.88e+00,
621,4.92e+00,4.88e+00,
622,4.88e+00,4.88e+00,
623,4.88e+00,4.88e+00,
624,4.96e+00,4.88e+00,
625,4.96e+00,4.88e+00,
626,4.96e+00,4.88e+00,
627,4.96e+00,4.88e+00,
628,4.92e+00,4.88e+00,
629,4.92e+00,4.88e+00,
630,4.96e+00,4.88e+00,
631,4.96e+00,4.88e+00,
632,4.96e+00,4.88e+00,
633,4.96e+00,4.88e+00,
634,4.96e+00,4.88e+00,
635,4.96e+00,4.88e+00,
636,4.96e+00,4.88e+00,
637,4.96e+00,4.88e+00,
638,4.96e+00,4.88e+00,
639,4.96e+00,4.88e+00,
640,4.96e+00,4.88e+00,
641,4.96e+00,4.88e+00,
642,4.96e+00,4.88e+00,
643,4.96e+00,4.88e+00,
644,4.92e+00,4.88e+00,
645,4.92e+00,4.88e+00,
646,4.88e+00,4.88e+00,
647,4.88e+00,4.88e+00,
648,4.88e+00,4.88e+00,
649,4.88e+00,4.88e+00,
650,4.88e+00,4.88e+00,
651,4.88e+00,4.88e+00,
652,4.76e+00,4.88e+00,
653,4.76e+00,4.88e+00,
654,4.76e+00,4.88e+00,
655,4.76e+00,4.88e+00,
656,4.80e+00,4.88e+00,
657,4.80e+00,4.88e+00,
658,4.76e+00,4.88e+00,
659,4.76e+00,4.88e+00,
660,4.76e+00,4.88e+00,
661,4.76e+00,4.88e+00,
662,4.80e+00,4.88e+00,
663,4.80e+00,4.88e+00,
664,4.80e+00,4.88e+00,
665,4.80e+00,4.88e+00,
666,4.80e+00,4.88e+00,
667,4.80e+00,4.88e+00,
668,4.84e+00,4.88e+00,
669,4.84e+00,4.88e+00,
670,4.80e+00,4.88e+00,
671,4.80e+00,4.88e+00,
672,4.84e+00,4.88e+00,
673,4.84e+00,4.88e+00,
674,4.84e+00,4.88e+00,
675,4.84e+00,4.88e+00,
676,4.76e+00,4.88e+00,
677,4.76e+00,4.88e+00,
678,4.80e+00,4.88e+00,
679,4.80e+00,4.88e+00,
680,4.84e+00,4.88e+00,
681,4.84e+00,4.88e+00,
682,4.76e+00,4.88e+00,
683,4.76e+00,4.88e+00,
684,4.76e+00,4.88e+00,
685,4.76e+00,4.88e+00,
686,4.80e+00,4.88e+00,
687,4.80e+00,4.88e+00,
688,4.76e+00,4.88e+00,
689,4.76e+00,4.88e+00,
690,4.80e+00,4.88e+00,
691,4.80e+00,4.88e+00,
692,4.84e+00,4.88e+00,
693,4.84e+00,4.88e+00,
694,4.80e+00,4.88e+00,
695,4.80e+00,4.88e+00,
696,4.80e+00,4.88e+00,
697,4.80e+00,4.88e+00,
698,4.84e+00,4.88e+00,
699,4.84e+00,4.88e+00,
700,4.80e+00,4.88e+00,
701,4.80e+00,4.88e+00,
702,4.84e+00,4.88e+00,
703,4.84e+00,4.88e+00,
704,4.88e+00,4.88e+00,
705,4.88e+00,4.88e+00,
706,4.84e+00,4.88e+00,
707,4.84e+00,4.88e+00,
708,4.84e+00,4.88e+00,
709,4.84e+00,4.88e+00,
710,4.88e+00,4.88e+00,
711,4.88e+00,4.88e+00,
712,4.88e+00,4.88e+00,
713,4.88e+00,4.88e+00,
714,4.84e+00,4.88e+00,
715,4.84e+00,4.88e+00,
716,4.88e+00,4.88e+00,
717,4.88e+00,4.88e+00,
718,4.88e+00,4.90e+00,
719,4.88e+00,4.90e+00,
720,4.88e+00,4.88e+00,
721,4.88e+00,4.88e+00,
722,4.92e+00,4.88e+00,
723,4.92e+00,4.88e+00,
724,4.92e+00,4.88e+00,
725,4.92e+00,4.88e+00,
726,4.84e+00,4.88e+00,
727,4.84e+00,4.88e+00,
728,4.88e+00,4.88e+00,
729,4.88e+00,4.88e+00,
730,4.88e+00,4.88e+00,
731,4.88e+00,4.88e+00,
732,4.88e+00,4.88e+00,
733,4.88e+00,4.88e+00,
734,4.88e+00,4.88e+00,
735,4.88e+00,4.88e+00,
736,4.88e+00,4.88e+00,
737,4.88e+00,4.88e+00,
738,4.88e+00,4.88e+00,
739,4.88e+00,4.88e+00,
740,4.88e+00,4.88e+00,
741,4.88e+00,4.88e+00,
742,4.96e+00,4.88e+00,
743,4.96e+00,4.88e+00,
744,4.92e+00,4.88e+00,
745,4.92e+00,4.88e+00,
746,4.88e+00,4.88e+00,
747,4.88e+00,4.88e+00,
748,4.92e+00,4.88e+00,
749,4.92e+00,4.88e+00,
750,4.88e+00,4.90e+00,
751,4.88e+00,4.90e+00,
752,4.92e+00,4.88e+00,
753,4.92e+00,4.88e+00,
754,4.92e+00,4.88e+00,
755,4.92e+00,4.88e+00,
756,4.92e+00,4.90e+00,
757,4.92e+00,4.90e+00,
758,4.92e+00,4.88e+00,
759,4.92e+00,4.88e+00,
760,4.96e+00,4.88e+00,
761,4.96e+00,4.88e+00,
762,4.92e+00,4.86e+00,
763,4.92e+00,4.86e+00,
764,4.92e+00,4.88e+00,
765,4.92e+00,4.88e+00,
766,4.96e+00,4.88e+00,
767,4.96e+00,4.88e+00,
768,4.96e+00,4.88e+00,
769,4.96e+00,4.88e+00,
770,4.92e+00,4.88e+00,
771,4.92e+00,4.88e+00,
772,4.96e+00,4.90e+00,
773,4.96e+00,4.90e+00,
774,4.92e+00,4.88e+00,
775,4.92e+00,4.88e+00,
776,4.92e+00,4.88e+00,
777,4.92e+00,4.88e+00,
778,4.96e+00,4.88e+00,
779,4.96e+00,4.88e+00,
780,4.96e+00,4.90e+00,
781,4.96e+00,4.90e+00,
782,4.96e+00,4.88e+00,
783,4.96e+00,4.88e+00,
784,4.96e+00,4.88e+00,
785,4.96e+00,4.88e+00,
786,4.96e+00,4.90e+00,
787,4.96e+00,4.90e+00,
788,4.96e+00,4.88e+00,
789,4.96e+00,4.88e+00,
790,4.96e+00,4.88e+00,
791,4.96e+00,4.88e+00,
792,4.96e+00,4.88e+00,
793,4.96e+00,4.88e+00,
794,4.96e+00,4.88e+00,
795,4.96e+00,4.88e+00,
796,4.96e+00,4.88e+00,
797,4.96e+00,4.88e+00,
798,4.96e+00,4.88e+00,
799,4.96e+00,4.88e+00,
800,4.92e+00,4.88e+00,
801,4.92e+00,4.88e+00,
802,4.96e+00,4.88e+00,
803,4.96e+00,4.88e+00,
804,4.96e+00,4.88e+00,
805,4.96e+00,4.88e+00,
806,4.92e+00,4.88e+00,
807,4.92e+00,4.88e+00,
808,4.96e+00,4.88e+00,
809,4.96e+00,4.88e+00,
810,4.96e+00,4.88e+00,
811,4.96e+00,4.88e+00,
812,4.96e+00,4.88e+00,
813,4.96e+00,4.88e+00,
814,4.96e+00,4.88e+00,
815,4.96e+00,4.88e+00,
816,4.96e+00,4.88e+00,
817,4.96e+00,4.88e+00,
818,4.92e+00,4.88e+00,
819,4.92e+00,4.88e+00,
820,4.92e+00,4.88e+00,
821,4.92e+00,4.88e+00,
822,4.92e+00,4.88e+00,
823,4.92e+00,4.88e+00,
824,4.92e+00,4.88e+00,
825,4.92e+00,4.88e+00,
826,4.96e+00,4.88e+00,
827,4.96e+00,4.88e+00,
828,4.92e+00,4.88e+00,
829,4.92e+00,4.88e+00,
830,4.92e+00,4.88e+00,
831,4.92e+00,4.88e+00,
832,4.96e+00,4.88e+00,
833,4.96e+00,4.88e+00,
834,4.96e+00,4.88e+00,
835,4.96e+00,4.88e+00,
836,4.96e+00,4.88e+00,
837,4.96e+00,4.88e+00,
838,4.96e+00,4.88e+00,
839,4.96e+00,4.88e+00,
840,4.96e+00,4.88e+00,
841,4.96e+00,4.88e+00,
842,4.96e+00,4.88e+00,
843,4.96e+00,4.88e+00,
844,4.92e+00,4.88e+00,
845,4.92e+00,4.88e+00,
846,4.96e+00,4.88e+00,
847,4.96e+00,4.88e+00,
848,4.96e+00,4.88e+00,
849,4.96e+00,4.88e+00,
850,4.92e+00,4.88e+00,
851,4.92e+00,4.88e+00,
852,4.96e+00,4.88e+00,
853,4.96e+00,4.88e+00,
854,4.96e+00,4.88e+00,
855,4.96e+00,4.88e+00,
856,4.92e+00,4.88e+00,
857,4.92e+00,4.88e+00,
858,4.92e+00,4.88e+00,
859,4.92e+00,4.88e+00,
860,4.96e+00,4.88e+00,
861,4.96e+00,4.88e+00,
862,4.96e+00,4.88e+00,
863,4.96e+00,4.88e+00,
864,4.96e+00,4.88e+00,
865,4.96e+00,4.88e+00,
866,4.96e+00,4.88e+00,
867,4.96e+00,4.88e+00,
868,4.96e+00,4.88e+00,
869,4.96e+00,4.88e+00,
870,4.96e+00,4.88e+00,
